{
  "pages": [
    {
      "id": "FirstEverPageByHumanity",
      "isDefault": true
    },
    {
      "id": "Page1",
      "isDefault": false
    },
    {
      "id": "Page2",
      "isDefault": false
    },
    {
      "id": "Page3",
      "isDefault": false
    },
    {
      "id": "Page3 Copy",
      "isDefault": false
    },
    {
      "id": "Page3 Copy Copy",
      "isDefault": false
    },
    {
      "id": "Page3 Copy Copy Copy",
      "isDefault": false
    }
  ],
  "viewMode": false,
  "appIsExample": false,
  "unreadCommentThreads": 0,
  "color": "#D6D1F2",
  "icon": "saturn",
  "evaluationVersion": 2,
  "applicationVersion": 2,
  "isManualUpdate": false,
  "deleted": false
}